<?xml version="1.0" encoding="UTF-8" standalone="no"?>
<!-- Created with Inkscape (http://www.inkscape.org/) -->

<svg
   width="120"
   height="120"
   viewBox="0 0 120 120"
   version="1.1"
   id="svg5"
   inkscape:version="1.2.1 (9c6d41e410, 2022-07-14)"
   sodipodi:docname="loop.svg"
   xmlns:inkscape="http://www.inkscape.org/namespaces/inkscape"
   xmlns:sodipodi="http://sodipodi.sourceforge.net/DTD/sodipodi-0.dtd"
   xmlns="http://www.w3.org/2000/svg"
   xmlns:svg="http://www.w3.org/2000/svg">
  <sodipodi:namedview
     id="namedview7"
     pagecolor="#ffffff"
     bordercolor="#000000"
     borderopacity="0.25"
     inkscape:showpageshadow="2"
     inkscape:pageopacity="0.0"
     inkscape:pagecheckerboard="0"
     inkscape:deskcolor="#d1d1d1"
     inkscape:document-units="px"
     showgrid="false"
     inkscape:zoom="4.9615326"
     inkscape:cx="41.821755"
     inkscape:cy="53.612467"
     inkscape:window-width="1920"
     inkscape:window-height="989"
     inkscape:window-x="1920"
     inkscape:window-y="0"
     inkscape:window-maximized="1"
     inkscape:current-layer="layer1"
     showguides="false" />
  <defs
     id="defs2" />
  <g
     inkscape:label="Layer 1"
     inkscape:groupmode="layer"
     id="layer1">
    <circle
       style="opacity:0.99;fill:#000000;fill-opacity:0;stroke:#000000;stroke-width:6.4;stroke-dasharray:none;stroke-opacity:1"
       id="path2040"
       cx="60.062084"
       cy="62.077591"
       r="52.403164" />
    <path
       style="opacity:0.99;fill:#000000;fill-opacity:1;stroke:#000000;stroke-width:1.1;stroke-linecap:butt;stroke-linejoin:round;stroke-dasharray:none;stroke-opacity:1"
       d="M 49.086093,104.69797 53.85938,96.982017 C -0.70319734,64.562086 46.019709,40.176232 48.130402,38.442953 c 0,0 4.487934,4.354976 5.546329,5.309403 1.84557,1.664276 5.129158,-20.199369 5.129158,-20.199369 l -22.368136,0.483004 5.548034,5.713299 c 0,0 -56.905236,37.386495 7.100306,74.94868 z"
       id="path4435"
       sodipodi:nodetypes="cccscccc" />
    <path
       style="opacity:0.99;fill:#000000;fill-opacity:1;stroke:#000000;stroke-width:1.1;stroke-linecap:butt;stroke-linejoin:round;stroke-dasharray:none;stroke-opacity:1"
       d="m 72.493272,21.303543 -4.773287,7.715948 c 54.562575,32.419931 7.839671,56.805785 5.728978,58.539064 0,0 -4.487934,-4.354976 -5.546329,-5.309403 -1.845568,-1.664276 -5.129158,20.199368 -5.129158,20.199368 l 22.368136,-0.483 -5.548034,-5.713302 c 0,0 56.905242,-37.386495 -7.100306,-74.948675 z"
       id="path4435-7"
       sodipodi:nodetypes="cccscccc" />
  </g>
</svg>
